lab-03-data-tidy-join
…
# A tibble: 1 × 2
  country       `2021`
  <chr>          <dbl>
1 United States   4.70

Answer: Argentina (rate = 48.4%), Turkiye (19.6%), and Brazil (8.3%) had overall higher levels of inflation rates compared to the US (4.7%). Argentina was 10.3x the US inflation rate in 2021, where Turkiye was 4.2x and Brazil was 1.8x the US inflation rate.

#Question 3: In a single pipeline, calculate the ratio of the inflation in 2021 and inflation in 1993 for each country and store this information in a new column called inf_ratio, arrange the data frame in decreasing order of inf_ratio, and select the variables country and inf_ratio to display as the result of the pipeline. Do not save this new variable in inf_ratio, only calculate and display it so you can answer the following question based on the output of the pipeline. Which country’s inflation change is the largest over this time period? Did inflation increase of decrease between 1993 and 2021 in this country?

inflation %>%
  mutate(inf_ratio = `2021`/`1993`) %>%
  arrange(desc(inf_ratio)) %>%
  select(country, inf_ratio)

# A tibble: 44 × 2
   country       inf_ratio
   <chr>             <dbl>
 1 New Zealand        3.06
 2 Canada             1.82
 3 Australia          1.63
 4 Ireland            1.60
 5 United States      1.59
 6 Norway             1.52
 7 Denmark            1.47
 8 Iceland            1.10
 9 Netherlands        1.04
10 Finland            1.00
# ℹ 34 more rows
…
Rows: 12 Columns: 2
── Column specification ────────────────────────────────────────────────────────
Delimiter: ","
chr (1): description
dbl (1): id

ℹ Use `spec()` to retrieve the full column specification for this data.
ℹ Specify the column types or set `show_col_types = FALSE` to quiet this message.

#Question 8: a) How many columns and how many rows does the us_inflation dataset have? What are the variables in it? Add a brief (1-2 sentences) narrative summarizing this information.

us_inflation

# A tibble: 132 × 4
   country       cpi_division_id  year annual_inflation
   <chr>                   <dbl> <dbl>            <dbl>
 1 United States               1  2011            4.80 
 2 United States               1  2012            2.45 
 3 United States               1  2013            0.908
 4 United States               1  2014            2.64 
 5 United States               1  2015            1.17 
 6 United States               1  2016           -1.33 
 7 United States               1  2017           -0.202
 8 United States               1  2018            0.456
 9 United States               1  2019            0.885
10 United States               1  2020            3.51 
# ℹ 122 more rows
…
